{
  "mapboxtoken": "pk.eyJ1IjoiY2xlbWVudGJsYWlzZSIsImEiOiJjazJtN2Yxa2EwYmpoM2dueDNnOXpicXJkIn0.eAAURFwmClhDf2AkR1Fo1g",
  "mapboxstyle" : "mapbox://styles/clementblaise/ck35v8w9b09mr1cmaehrzfoco",
  "latfm": "5b1e5d81a658ee680f3765e99eb11edd",
  "spotify": "bd9a61d05b2c43c780b435a7dee2e51e",
  "spotifyRedirect": "https://thirdparties.residentmap.ml/callbackspotify",
  "thirdParty": "https://thirdparties.residentmap.ml"
}

